%YAML 1.1
%TAG !u! tag:unity3d.com,2011:
--- !u!1 &4902853980977138907
GameObject:
  m_ObjectHideFlags: 0
  m_CorrespondingSourceObject: {fileID: 0}
  m_PrefabInstance: {fileID: 0}
  m_PrefabAsset: {fileID: 0}
  serializedVersion: 6
  m_Component:
  - component: {fileID: 4902853980977138909}
  - component: {fileID: 4902853980977138906}
  m_Layer: 0
  m_Name: ProtectTowerCommandItem
  m_TagString: Untagged
  m_Icon: {fileID: 0}
  m_NavMeshLayer: 0
  m_StaticEditorFlags: 0
  m_IsActive: 1
--- !u!4 &4902853980977138909
Transform:
  m_ObjectHideFlags: 0
  m_CorrespondingSourceObject: {fileID: 0}
  m_PrefabInstance: {fileID: 0}
  m_PrefabAsset: {fileID: 0}
  m_GameObject: {fileID: 4902853980977138907}
  m_LocalRotation: {x: 0, y: 0, z: 0, w: 1}
  m_LocalPosition: {x: 0, y: 0, z: 0}
  m_LocalScale: {x: 1, y: 1, z: 1}
  m_Children: []
  m_Father: {fileID: 0}
  m_RootOrder: 0
  m_LocalEulerAnglesHint: {x: 0, y: 0, z: 0}
--- !u!114 &4902853980977138906
MonoBehaviour:
  m_ObjectHideFlags: 0
  m_CorrespondingSourceObject: {fileID: 0}
  m_PrefabInstance: {fileID: 0}
  m_PrefabAsset: {fileID: 0}
  m_GameObject: {fileID: 4902853980977138907}
  m_Enabled: 1
  m_EditorHideFlags: 0
  m_Script: {fileID: 11500000, guid: 25abac1043564fd3923ad32442fa0b11, type: 3}
  m_Name: 
  m_EditorClassIdentifier: 
  itemIcon: {fileID: 21300000, guid: 7bbb97f874f17f444be24383dd6296f9, type: 3}
  itemHoverIcon: {fileID: 21300000, guid: 86b68e9c351aa1642ab5aa87b0a14aeb, type: 3}
  itemName: 
  itemLore: 
  itemDamage: 0
  spawnTowerType: 3
